Rworkshop
…
---

# Row-wise calculation

6.Generate a variable named “MMSE_M”, which is the number of missing values across variables “MMSE_1”, “MMSE_2”, …, “MMSE_9” per individual. Label the variable as “the number of missing values in MMSE”.

```r
# convert dataframe to tibble for faster data cleaning
wide_paquid <- as_tibble(wide_paquid)
paquid_MMSE <- wide_paquid %>% select(c("ID", contains("MMSE")))
paquid_MMSE
```

```
## # A tibble: 500 x 10
##       ID MMSE_1 MMSE_2 MMSE_3 MMSE_4 MMSE_5 MMSE_6 MMSE_7 MMSE_8 MMSE_9
##    <int>  <int>  <int>  <int>  <int>  <int>  <int>  <int>  <int>  <int>
##  1     1     26     NA     NA     NA     NA     NA     NA     NA     NA
##  2     2     26     28     25     24     22     NA     NA     NA     NA
##  3     3     28     25     NA     NA     NA     NA     NA     NA     NA
##  4     4     NA     22     NA     NA     NA     NA     NA     NA     NA
##  5     5     29     27     30     28     28     27     26     NA     NA
##  6     6     29     26     26     27     23     24     NA     NA     NA
##  7     7     23     19     24     NA     NA     NA     NA     NA     NA
##  8     8     25     27     23     29     24     27     25     NA     NA
##  9     9     26     29     28     NA     NA     NA     NA     NA     NA
## 10    10     30     28     24     25     NA     NA     NA     NA     NA
## # ... with 490 more rows
```
…
# Row-wise calculation

8.Generate variables “MEM_1”, “MEM_2”, …, “MEM_9” which equals the mean of “BVRT” and “IST” at each time point.

--

* The original wide format data set has too many columns... Let's start with one babystep first:

```r
# this tibble is the "ingredient"
wide_paquid %>% select(contains(c("ID","BVRT","IST")))
```

```
## # A tibble: 500 x 19
##       ID BVRT_1 BVRT_2 BVRT_3 BVRT_4 BVRT_5 BVRT_6 BVRT_7 BVRT_8 BVRT_9 IST_1
##    <int>  <int>  <int>  <int>  <int>  <int>  <int>  <int>  <int>  <int> <int>
##  1     1     10     NA     NA     NA     NA     NA     NA     NA     NA    37
##  2     2     13     13     12     13      9     NA     NA     NA     NA    25
##  3     3     13      6     NA     NA     NA     NA     NA     NA     NA    28
##  4     4     NA      8     NA     NA     NA     NA     NA     NA     NA    NA
##  5     5     10     13     12     11     11      9     12     NA     NA    34
##  6     6     12     14     11     10      9      8     NA     NA     NA    37
##  7     7      5      2     NA     NA     NA     NA     NA     NA     NA    16
##  8     8     11     11     12      8     10      9      8     NA     NA    29
##  9     9     11     12     12     NA     NA     NA     NA     NA     NA    25
## 10    10     12      8      8     NA     NA     NA     NA     NA     NA    35
## # ... with 490 more rows, and 8 more variables: IST_2 <int>, IST_3 <int>,
## #   IST_4 <int>, IST_5 <int>, IST_6 <int>, IST_7 <int>, IST_8 <int>,
## #   IST_9 <int>
```
…
$$ MEM_1 = (BVRT_1+IST_1)/2 $$

--

```r
wide_paquid %>%
  select(contains(c("ID", "BVRT_1", "IST_1"))) %>%
  rowwise("ID") %>% # indicate the row index
  mutate(MEM_1 = mean(c(BVRT_1, IST_1))) %>% # mutate: create new column
  ungroup() # need to ungroup for rowwise calculation
```

```
## # A tibble: 500 x 4
##       ID BVRT_1 IST_1 MEM_1
##    <int>  <int> <int> <dbl>
*##  1     1     10    37  23.5
##  2     2     13    25  19  
##  3     3     13    28  20.5
##  4     4     NA    NA  NA  
##  5     5     10    34  22  
##  6     6     12    37  24.5
##  7     7      5    16  10.5
##  8     8     11    29  20  
##  9     9     11    25  18  
## 10    10     12    35  23.5
## # ... with 490 more rows
```
---

# Row-wise calculation

* Can we do the above process directly on the whole wide dataframe? --- Yes!

```r
wide_paquid  %>% 
  rowwise("ID") %>% 
  mutate(MEM_1 = mean(c(BVRT_1,IST_1))) %>% 
  ungroup() 
```

```
## # A tibble: 500 x 62
##       ID   dem agedem dem_young age_init education   male MMSE_1 BVRT_1 IST_1
##    <int> <int>  <dbl>     <dbl>    <dbl> <labelled> <int>  <int>  <int> <int>
##  1     1     0   68.5         1     67.4 1              1     26     10    37
##  2     2     1   85.6         0     65.9 1              0     26     13    25
##  3     3     0   74.7         0     71.5 1              1     28     13    28
##  4     4     0   87.6         0     66   1              0     NA     NA    NA
##  5     5     0   88.1         0     67.3 1              0     29     10    34
##  6     6     1   86.5         0     70.1 1              1     29     12    37
##  7     7     0   89.8         0     84.5 1              0     23      5    16
##  8     8     0   88.2         0     70.5 1              0     25     11    29
##  9     9     0   84.9         0     79.7 1              1     26     11    25
## 10    10     0   88.0         0     77.8 0              0     30     12    35
## # ... with 490 more rows, and 52 more variables: age_1 <dbl>, HIER_1 <int>,
## #   fu_1 <dbl>, MMSE_2 <int>, BVRT_2 <int>, IST_2 <int>, age_2 <dbl>,
## #   HIER_2 <int>, fu_2 <dbl>, MMSE_3 <int>, BVRT_3 <int>, IST_3 <int>,
## #   age_3 <dbl>, HIER_3 <int>, fu_3 <dbl>, MMSE_4 <int>, BVRT_4 <int>,
## #   IST_4 <int>, age_4 <dbl>, HIER_4 <int>, fu_4 <dbl>, MMSE_5 <int>,
## #   BVRT_5 <int>, IST_5 <int>, age_5 <dbl>, HIER_5 <int>, fu_5 <dbl>,
## #   MMSE_6 <int>, BVRT_6 <int>, IST_6 <int>, age_6 <dbl>, HIER_6 <int>, ...
```
…
---

# Row-wise calculation

9.View variables that contain “MEM”, “BVRT”, or “IST”.:

```r
wide_paquid %>% 
  select(contains(c("ID", "MEM", "BVRT","IST"))) 
```

```
## # A tibble: 500 x 28
##       ID MEM_1 MEM_2 MEM_3 MEM_4 MEM_5 MEM_6 MEM_7 MEM_8 MEM_9 BVRT_1 BVRT_2
##    <int> <dbl> <dbl> <dbl> <dbl> <dbl> <dbl> <dbl> <dbl> <dbl>  <int>  <int>
##  1     1  23.5  NA    NA    NA    NA      NA  NA      NA    NA     10     NA
##  2     2  19    20.5  17.5  14.5  12      NA  NA      NA    NA     13     13
##  3     3  20.5  11    NA    NA    NA      NA  NA      NA    NA     13      6
##  4     4  NA    17.5  NA    NA    NA      NA  NA      NA    NA     NA      8
##  5     5  22    24.5  24    19.5  23      17  19.5    NA    NA     10     13
##  6     6  24.5  26    19.5  20    17.5    17  NA      NA    NA     12     14
##  7     7  10.5   9    NA    NA    NA      NA  NA      NA    NA      5      2
##  8     8  20    18.5  20    18    18.5    16  11.5    NA    NA     11     11
##  9     9  18    18    18    NA    NA      NA  NA      NA    NA     11     12
## 10    10  23.5  15    16.5  NA    NA      NA  NA      NA    NA     12      8
## # ... with 490 more rows, and 16 more variables: BVRT_3 <int>, BVRT_4 <int>,
## #   BVRT_5 <int>, BVRT_6 <int>, BVRT_7 <int>, BVRT_8 <int>, BVRT_9 <int>,
## #   IST_1 <int>, IST_2 <int>, IST_3 <int>, IST_4 <int>, IST_5 <int>,
## #   IST_6 <int>, IST_7 <int>, IST_8 <int>, IST_9 <int>
```

```r
wide_paquid
```

```
## # A tibble: 500 x 70
##       ID   dem agedem dem_young age_init education   male MMSE_1 BVRT_1 IST_1
##    <int> <int>  <dbl>     <dbl>    <dbl> <labelled> <int>  <int>  <int> <int>
##  1     1     0   68.5         1     67.4 1              1     26     10    37
##  2     2     1   85.6         0     65.9 1              0     26     13    25
##  3     3     0   74.7         0     71.5 1              1     28     13    28
##  4     4     0   87.6         0     66   1              0     NA     NA    NA
##  5     5     0   88.1         0     67.3 1              0     29     10    34
##  6     6     1   86.5         0     70.1 1              1     29     12    37
##  7     7     0   89.8         0     84.5 1              0     23      5    16
##  8     8     0   88.2         0     70.5 1              0     25     11    29
##  9     9     0   84.9         0     79.7 1              1     26     11    25
## 10    10     0   88.0         0     77.8 0              0     30     12    35
## # ... with 490 more rows, and 60 more variables: age_1 <dbl>, HIER_1 <int>,
## #   fu_1 <dbl>, MMSE_2 <int>, BVRT_2 <int>, IST_2 <int>, age_2 <dbl>,
## #   HIER_2 <int>, fu_2 <dbl>, MMSE_3 <int>, BVRT_3 <int>, IST_3 <int>,
## #   age_3 <dbl>, HIER_3 <int>, fu_3 <dbl>, MMSE_4 <int>, BVRT_4 <int>,
## #   IST_4 <int>, age_4 <dbl>, HIER_4 <int>, fu_4 <dbl>, MMSE_5 <int>,
## #   BVRT_5 <int>, IST_5 <int>, age_5 <dbl>, HIER_5 <int>, fu_5 <dbl>,
## #   MMSE_6 <int>, BVRT_6 <int>, IST_6 <int>, age_6 <dbl>, HIER_6 <int>, ...
```
…
